…
``` r
v18 <- load_variables(2018, "acs5", cache = TRUE)

## 1. inspect using the Viewer:
# v18 %>% View()

## 2. copy to clipboard and paste into Excel: 
# v18 %>% clipr::write_clip()

v18
```

    ## # A tibble: 26,996 x 3
    ##    name       label                           concept                           
    ##    <chr>      <chr>                           <chr>                             
    ##  1 B00001_001 Estimate!!Total                 UNWEIGHTED SAMPLE COUNT OF THE PO~
    ##  2 B00002_001 Estimate!!Total                 UNWEIGHTED SAMPLE HOUSING UNITS   
    ##  3 B01001_001 Estimate!!Total                 SEX BY AGE                        
    ##  4 B01001_002 Estimate!!Total!!Male           SEX BY AGE                        
    ##  5 B01001_003 Estimate!!Total!!Male!!Under 5~ SEX BY AGE                        
    ##  6 B01001_004 Estimate!!Total!!Male!!5 to 9 ~ SEX BY AGE                        
    ##  7 B01001_005 Estimate!!Total!!Male!!10 to 1~ SEX BY AGE                        
    ##  8 B01001_006 Estimate!!Total!!Male!!15 to 1~ SEX BY AGE                        
    ##  9 B01001_007 Estimate!!Total!!Male!!18 and ~ SEX BY AGE                        
    ## 10 B01001_008 Estimate!!Total!!Male!!20 years SEX BY AGE                        
    ## # ... with 26,986 more rows
…
            , year = 2018
            , survey = "acs5"
            , variables = acs_var_list$`Age Variables` 
            , geometry = F
            , cache = T
    ) %>% 
    select(GEOID, variable, estimate) %>% 
    spread(variable, estimate) %>% 
    select(GEOID, one_of(names(acs_var_list$`Age Variables`))) %>% 
    mutate(Age_65_up = rowSums(select(., Male_65_66:Male_85_up, Female_65_66:Female_85_up))
           , Percent_Over_65 = Age_65_up/Total_Population)
)
```

    ## # A tibble: 945 x 52
    ##    GEOID Total_Population Total_Populatio~ Total_Populatio~ Male_Under_5
    ##    <chr>            <dbl>            <dbl>            <dbl>        <dbl>
    ##  1 10100            42780            21068            21712         1428
    ##  2 10140            71967            36981            34986         2025
    ##  3 10180           170009            85988            84021         6012
    ##  4 10220            38358            18768            19590         1378
    ##  5 10260            18181             8862             9319          443
    ##  6 10300            98474            49815            48659         2689
    ##  7 10380           307555           149692           157863         7034
    ##  8 10420           704454           342599           361855        19517
    ##  9 10460            65745            33886            31859         2221
    ## 10 10500           153101            72607            80494         5057
    ## # ... with 935 more rows, and 47 more variables: Male_5_9 <dbl>,
    ## #   Male_10_14 <dbl>, Male_15_17 <dbl>, Male_18_19 <dbl>, Male_20 <dbl>,
    ## #   Male_21 <dbl>, Male_22_24 <dbl>, Male_25_29 <dbl>, Male_30_34 <dbl>,
    ## #   Male_35_39 <dbl>, Male_40_44 <dbl>, Male_45_49 <dbl>, Male_50_54 <dbl>,
    ## #   Male_55_59 <dbl>, Male_60_61 <dbl>, Male_62_64 <dbl>, Male_65_66 <dbl>,
    ## #   Male_67_69 <dbl>, Male_70_74 <dbl>, Male_75_79 <dbl>, Male_80_84 <dbl>,
    ## #   Male_85_up <dbl>, Female_Under_5 <dbl>, Female_5_9 <dbl>,
    ## #   Female_10_14 <dbl>, Female_15_17 <dbl>, Female_18_19 <dbl>,
    ## #   Female_20 <dbl>, Female_21 <dbl>, Female_22_24 <dbl>, Female_25_29 <dbl>,
…
            , survey = "acs5"
            , variables = acs_var_list$`Unemployment Variables`
            , geometry = F
            , cache = T
    ) %>% 
    select(GEOID, variable, estimate) %>% 
    spread(variable, estimate) %>% 
    select(GEOID, one_of(names(acs_var_list$`Unemployment Variables`))) %>% 
    mutate(Total_Unemployed = rowSums(select(.,contains("Unemployed")), na.rm = T)
           , Labor_Force = rowSums(select(., contains("labor_force")), na.rm = T)
           , Unemployment_Rate = Total_Unemployed/Labor_Force)
)
```

    ## # A tibble: 945 x 12
    ##    GEOID Male_16_64_labo~ Males_65_up_lab~ Female_16_64_la~ Female_65_up_la~
    ##    <chr>            <dbl>            <dbl>            <dbl>            <dbl>
    ##  1 10100            10281              888             9335              845
    ##  2 10140            13088              928            11456             1091
    ##  3 10180            30880             2439            28476             1946
    ##  4 10220             6282              605             5670              383
    ##  5 10260             2367               93             2036               29
    ##  6 10300            22010             1196            19844             1252
    ##  7 10380            39571             1293            31974              542
    ##  8 10420           153828            10491           139298             8088
    ##  9 10460            11808              705             9388              547
    ## 10 10500            15274             1516            13572             1190
    ## # ... with 935 more rows, and 7 more variables: Male_16_64_Unemployed <dbl>,
    ## #   Male_65_up_Unemployed <dbl>, Female_16_64_Unemployed <dbl>,
    ## #   Female_65_up_Unemployed <dbl>, Total_Unemployed <dbl>, Labor_Force <dbl>,
    ## #   Unemployment_Rate <dbl>
…
    get_acs(geography = "metropolitan statistical area/micropolitan statistical area"
            , year = 2018
            , survey = "acs5"
            , variables = acs_var_list$`Other ACS Variables`
            , geometry = F
            , cache = T
    ) %>% 
    select(GEOID, variable, estimate) %>% 
    spread(variable, estimate) %>% 
    select(GEOID, one_of(names(acs_var_list$`Other ACS Variables`))) %>% 
    mutate(Owner_Occupied_Rate = Owner_Occupied_units / Housing_units)
)
```

    ## # A tibble: 945 x 10
    ##    GEOID Total_Population Median_Househol~ Median_Home_Val~ Median_age
    ##    <chr>            <dbl>            <dbl>            <dbl>      <dbl>
    ##  1 10100            42780            57184           155200       37.3
    ##  2 10140            71967            47770           168500       43.7
    ##  3 10180           170009            49945           110100       33.9
    ##  4 10220            38358            49235           125700       35.6
    ##  5 10260            18181            12902            85200       40.9
    ##  6 10300            98474            53972           133300       41.7
    ##  7 10380           307555            16369            98600       42  
    ##  8 10420           704454            55718           144900       40.2
    ##  9 10460            65745            42752           108300       35.6
    ## 10 10500           153101            42861           114700       36.7
    ## # ... with 935 more rows, and 5 more variables: Housing_units <dbl>,
    ## #   Owner_Occupied_units <dbl>, Renter_Occupied_units <dbl>,
    ## #   Vacant_units <dbl>, Owner_Occupied_Rate <dbl>
…
plan(sequential) # turns off background workers
tictoc::toc()
```

    ## 16.73 sec elapsed

``` r
all_distances
```

    ## # A tibble: 937 x 15
    ##    GEOID Housing_units Housing_Units_P~ Median_age Median_Home_Val~
    ##    <chr>         <dbl>            <dbl>      <dbl>            <dbl>
    ##  1 10100          23.1            20.3        2.50             6.36
    ##  2 10140          22.8            19.3        9.97             5.49
    ##  3 10180          22.1            18.4        5.95            10.1 
    ##  4 10220          23.1            18.6        3.55             8.77
    ##  5 10260          23.3             9.79       6.31            12.3 
    ##  6 10300          22.6            15.2        7.29             8.11
    ##  7 10380          20.7             5.25       7.65            11.1 
    ##  8 10420          17.6            13.6        5.46             7.10
    ##  9 10460          22.9            20.5        3.55            10.3 
    ## 10 10500          22.2            17.5        2.50             9.73
    ## # ... with 927 more rows, and 10 more variables: Median_Household_Income <dbl>,
    ## #   Owner_Occupied_Rate <dbl>, Percent_Over_65 <dbl>, Pop_Per_Sq_Mile <dbl>,
    ## #   Total_Population <dbl>, Unemployment_Rate <dbl>, Total_Dist <dbl>,
    ## #   MSA_NAME <chr>, geometry <MULTIPOLYGON [°]>, State <chr>
…
